{
    "currency": "$",
    "startMoney": 10000,
    "maxBusinesses": 10000,
    "revenueIncrease": 0.2,
    "priceIncrease": 0.2,
    "businesses": [
        {
            "id": "coffee",
            "name": "Coffee Shop",
            "price": 10000,
            "revenue": 5000,
            "time": 1,
            "manager": {
                "name": "Louisa Flowers",
                "description": "When it comes to Louisa, she is the coffee encyclopedia. She certainly knows how to run a coffee shop.",
                "price": 20000
            } 
        },
        {
            "id": "pizzeria",
            "name": "Pizzeria",
            "price": 100000,
            "revenue": 20000,
            "time": 3,
            "manager": {
                "name": "Luigi McGregor",
                "description": "Thanks to his half Scottish and half Italian background, Luigi knows all about running a pizza business. But please don't ask for deep fried pizza...",
                "price": 200000
            } 
        },
        {
            "id": "store",
            "name": "Convenience Store",
            "price": 1000000,
            "revenue": 200000,
            "time": 20,
            "manager": {
                "name": "Tom De Vries",
                "description": "The De Vries family has been in the convenience store business for years. Tom is no exception and was born to run them.",
                "price": 2000000
            } 
        },
        {
            "id": "whiskey",
            "name": "Whiskey Distillery",
            "price": 5000000,
            "revenue": 1000000,
            "time": 100,
            "manager": {
                "name": "Joe 'One Eye' McWood",
                "description": "Legend says he fell in a whiskey barrel when he was little. Since, Captain McWood knows all about running a Whiskey Distillery.",
                "price": 20000000
            } 
        },
        {
            "id": "movie",
            "name": "Movie Company",
            "price": 10000000,
            "revenue": 10000000,
            "time": 400,
            "manager": {
                "name": "Morgan Jackson",
                "description": "Ex-actor, now producer, you can trust Mr. Jackson with your movie company.",
                "price": 200000000
            } 
        },
        {
            "id": "casino",
            "name": "Casino",
            "price": 100000000,
            "revenue": 500000000,
            "time": 1000,
            "manager": {
                "name": "Walter White",
                "description": "A man with a lot of connections, perfect to run your casinos.",
                "price": 2000000000
            } 
        },
        {
            "id": "bank",
            "name": "Bank",
            "price": 1000000000,
            "revenue": 5000000000,
            "time": 10000,
            "manager": {
                "name": "Nina Williams",
                "description": "Her father, the famous economist Dr. Williams, introduced Nina to numbers at her youngest age. A few years later, she's been heading the biggest banks. You can trust her to run your banks.",
                "price": 20000000000
            } 
        },
        {
            "id": "nuclear",
            "name": "Nuclear Plant",
            "price": 50000000000,
            "revenue": 10000000000,
            "time": 500000,
            "manager": {
                "name": "Beatrice Mathieu",
                "description": "Holding two degrees, one in Science and the other one in Business Management, Ms. Mathieu is the best candidate to run your nuclear plants.",
                "price": 200000000000
            } 
        }
    ]
}